{
  "type": "service_account",
  "project_id": "healthy-display-272415",
  "private_key_id": "e6f36368f2ef3d17bef4ff3881c88844e1602b1c",
  "private_key": "-----BEGIN PRIVATE KEY-----\nMIIEvgIBADANBgkqhkiG9w0BAQEFAASCBKgwggSkAgEAAoIBAQCrcKUqk8e5rgrs\nye/+j2x+ygvWHsEXcwg9EA8eIILAsn5H9C8DSpXZWedO1hmBQLYz+NON29GzWSjy\nfWqY+gFq/CF95wY0deB44yJJkj7D46gXGRMo90NbEbsKHBZVnGQyR5LUA2HwNyea\nFcqEX4pFDn3EaNjEoHFCYYwPCKjxngdKJLPNh6i3nZ+MDpi0ImWLKiCf95R9MfxQ\nIvSuDwpexzwaRx4Q9i7WWwP2qg+S7qZuSId8BV9INe5+cMiP5PReaWxcMlCnUvPv\n2a1VQLNjZd8LWpldMu1+abr7j3yxLGfU7KZByWLItBK5oeEujbbv0pHE8lBMFOc+\naD/lkzbJAgMBAAECggEAFSN+zgzqMcAeuzscAyqKkWiWxIhGvT4zDBpsjsWp8Zog\nnX0jhdeeue3OqkcWXnxM6wQZi7KIvQE3ngyuRd3/qkIb3BMODg5hxu4Upncok41A\nxtZR6TlxvesmAZVcgKJXrWZrWYZwP0cBtEtPDPrdyO2EPuFBpx70UB/IffsOn7nt\nddeWgOKifaTvGf99jeOaRaneBzBzzTPMLmo6ldEIvfxNHwnMa1hIRZ7UHJ7dmtqE\nyEDFWhHV/STgel1LRDfKbzax/dh7vnInxKFkRCWDL5n5ta8KOty0BmoLfrcmBVFw\nl2vIZq3xlKajKl/tOPVhdUEFqJcQUyjH5/S8tlTmYQKBgQDhVqZfK3iIUM2UksKe\ndIJIHalnXZNPMS7DNz9Yuv2qVFjwnhX8bANN6HniRdwA4VSUil+ksfuA8fwJqdrh\nQBqFeVlrEwmxxlddxXVkVVmN/Is1Ak/RIYjpwGtcHvhKYiBkrtVFsnvg+5yqcGqk\nTR3vNz2bEliCceCMIZIYhM7isQKBgQDCxIShxnaVECllpxdzNyNaZVU0biaO0mOZ\nFOJnw0ZDcNf+GGzt39HvdzG1+LhBFw3JGKnc2KcswQI0Pr7McETjZg9vqpN/u0NB\nniuEeFmo2vL8GRB8wg3DbXXU5uHT4QXSWY1J6NwZc45jZiEE25afbWvSXWPIupup\nvk5d9formQKBgQCKMZnWw9Inx2ZMt7SjeNBtacN6oOi2qHMFRdyTjhoDW7cv2cOi\nCpv8K5aULkO+RnKYpkQBvSWA7uajBog1nBqnwMQV5pcLb5gk6fQUlENX0ImO+Nv6\nZZaRxHATDus2svcqyA4DsHJIiAaMgGTmXmT9T+N4NsgRN8V+Kxht8QTwAQKBgQCk\ndFztYG92VAwwWhMx5MfEJzX3rF6AT+NrObgmFzt37ItkcOlhPZC9Gy7tURL7WuT3\n/QxIfuNBpcMfrC9c3hs8y0uTZTtgKhWTDWP/WcOTETUEaoGCZjRK5F0PJNhgGGva\n/mSPmMBn+SusgGq2+FdJTJIzMUn1DqQrgpYXPoA7WQKBgBh8JHbXgCbbS4SiOxW5\nkHCbdmie2OslImK4GEqndlIq0dm9yCKGRKcMjI72str+/vHExDugWGoKEGe+SzS7\ni4squ3pg5KVxo5talZ2s6T5CutiXpHIvp/bp1ZoHSclz9qyT8jEXdNAo4oE0WlJa\ny3VEnP/WHhjdabKaWYYDY7X/\n-----END PRIVATE KEY-----\n",
  "client_email": "python@healthy-display-272415.iam.gserviceaccount.com",
  "client_id": "106187808583840504346",
  "auth_uri": "https://accounts.google.com/o/oauth2/auth",
  "token_uri": "https://oauth2.googleapis.com/token",
  "auth_provider_x509_cert_url": "https://www.googleapis.com/oauth2/v1/certs",
  "client_x509_cert_url": "https://www.googleapis.com/robot/v1/metadata/x509/python%40healthy-display-272415.iam.gserviceaccount.com"
}
